{
  "images" : [
    {
      "filename" : "Screenshot 2023-11-22 at 09.16.06.png",
      "idiom" : "universal",
      "scale" : "1x"
    },
    {
      "filename" : "Screenshot 2023-11-22 at 09.16.06 1.png",
      "idiom" : "universal",
      "scale" : "2x"
    },
    {
      "filename" : "Screenshot 2023-11-22 at 09.16.06 2.png",
      "idiom" : "universal",
      "scale" : "3x"
    }
  ],
  "info" : {
    "author" : "xcode",
    "version" : 1
  }
}
